…
``` r
by_age_exit<- bank_data %>% 
  tabyl(Age, Exited) %>% 
  adorn_totals("row") 
```

\#Renaming the columns from 0 and 1 to Stayed and Exited \#And then
viewing a sample of the the table we will visualize using R

``` r
as_tibble(by_age_exit %>% rename(Exited = "1") %>% 
                rename(Stayed = "0"))
```

    ## # A tibble: 71 x 3
    ##    Age   Stayed Exited
    ##    <chr>  <dbl>  <dbl>
    ##  1 18        20      2
    ##  2 19        26      1
    ##  3 20        38      2
    ##  4 21        50      3
    ##  5 22        72     12
    ##  6 23        93      6
    ##  7 24       118     14
    ##  8 25       148      6
    ##  9 26       186     14
    ## 10 27       196     13
    ## # ... with 61 more rows
…
